/home/dexterous/Desktop/Emblogic/005_Character_Device_Driver_Development/ioctl/ioctl_driver.ko
/home/dexterous/Desktop/Emblogic/005_Character_Device_Driver_Development/ioctl/init_func.o /home/dexterous/Desktop/Emblogic/005_Character_Device_Driver_Development/ioctl/cleanup_func.o /home/dexterous/Desktop/Emblogic/005_Character_Device_Driver_Development/ioctl/opendev.o /home/dexterous/Desktop/Emblogic/005_Character_Device_Driver_Development/ioctl/releasedev.o /home/dexterous/Desktop/Emblogic/005_Character_Device_Driver_Development/ioctl/readdev.o /home/dexterous/Desktop/Emblogic/005_Character_Device_Driver_Development/ioctl/readdev_dest.o /home/dexterous/Desktop/Emblogic/005_Character_Device_Driver_Development/ioctl/writedev.o /home/dexterous/Desktop/Emblogic/005_Character_Device_Driver_Development/ioctl/llseekdev.o /home/dexterous/Desktop/Emblogic/005_Character_Device_Driver_Development/ioctl/trim_device.o /home/dexterous/Desktop/Emblogic/005_Character_Device_Driver_Development/ioctl/create_dev_buff.o /home/dexterous/Desktop/Emblogic/005_Character_Device_Driver_Development/ioctl/ioctldev.o

