/home/dexterous/Desktop/Emblogic/005_Character_Device_Driver_Development/sys_call_hijacker_spinlock/sys_call_hijacker_driver.ko
/home/dexterous/Desktop/Emblogic/005_Character_Device_Driver_Development/sys_call_hijacker_spinlock/init_func.o /home/dexterous/Desktop/Emblogic/005_Character_Device_Driver_Development/sys_call_hijacker_spinlock/cleanup_func.o /home/dexterous/Desktop/Emblogic/005_Character_Device_Driver_Development/sys_call_hijacker_spinlock/opendev.o /home/dexterous/Desktop/Emblogic/005_Character_Device_Driver_Development/sys_call_hijacker_spinlock/releasedev.o /home/dexterous/Desktop/Emblogic/005_Character_Device_Driver_Development/sys_call_hijacker_spinlock/readdev.o /home/dexterous/Desktop/Emblogic/005_Character_Device_Driver_Development/sys_call_hijacker_spinlock/readdev_dest.o /home/dexterous/Desktop/Emblogic/005_Character_Device_Driver_Development/sys_call_hijacker_spinlock/writedev.o /home/dexterous/Desktop/Emblogic/005_Character_Device_Driver_Development/sys_call_hijacker_spinlock/llseekdev.o /home/dexterous/Desktop/Emblogic/005_Character_Device_Driver_Development/sys_call_hijacker_spinlock/trim_device.o /home/dexterous/Desktop/Emblogic/005_Character_Device_Driver_Development/sys_call_hijacker_spinlock/create_dev_buff.o

