/home/dexterous/Desktop/Emblogic/005_Character_Device_Driver_Development/device_stack/my_module_driver/my_module_driver.ko
/home/dexterous/Desktop/Emblogic/005_Character_Device_Driver_Development/device_stack/my_module_driver/init_func.o /home/dexterous/Desktop/Emblogic/005_Character_Device_Driver_Development/device_stack/my_module_driver/cleanup_func.o /home/dexterous/Desktop/Emblogic/005_Character_Device_Driver_Development/device_stack/my_module_driver/my_module.o

