/home/dexterous/Desktop/Emblogic/005_Character_Device_Driver_Development/device_stack/stack_device.ko
/home/dexterous/Desktop/Emblogic/005_Character_Device_Driver_Development/device_stack/init_func.o /home/dexterous/Desktop/Emblogic/005_Character_Device_Driver_Development/device_stack/cleanup_func.o

