/home/dexterous/Desktop/Emblogic/005_Character_Device_Driver_Development/kmalloc_skull/kmalloc_skull.ko
/home/dexterous/Desktop/Emblogic/005_Character_Device_Driver_Development/kmalloc_skull/init_func.o /home/dexterous/Desktop/Emblogic/005_Character_Device_Driver_Development/kmalloc_skull/cleanup_func.o

