/home/dexterous/Desktop/Emblogic/005_Character_Device_Driver_Development/skull_devices/skull_devices.ko
/home/dexterous/Desktop/Emblogic/005_Character_Device_Driver_Development/skull_devices/init_func.o /home/dexterous/Desktop/Emblogic/005_Character_Device_Driver_Development/skull_devices/cleanup_func.o

