/home/dexterous/Desktop/Emblogic/005_Character_Device_Driver_Development/basic/my_driver.ko
/home/dexterous/Desktop/Emblogic/005_Character_Device_Driver_Development/basic/init.o /home/dexterous/Desktop/Emblogic/005_Character_Device_Driver_Development/basic/clean.o

