/home/dexterous/Desktop/Emblogic/005_Character_Device_Driver_Development/alloc_chrdev_region/my_device.ko
/home/dexterous/Desktop/Emblogic/005_Character_Device_Driver_Development/alloc_chrdev_region/init_func.o /home/dexterous/Desktop/Emblogic/005_Character_Device_Driver_Development/alloc_chrdev_region/cleanup_func.o

