/home/dexterous/Desktop/Emblogic/005_Character_Device_Driver_Development/register_chrdev/my_device.ko
/home/dexterous/Desktop/Emblogic/005_Character_Device_Driver_Development/register_chrdev/init_func.o /home/dexterous/Desktop/Emblogic/005_Character_Device_Driver_Development/register_chrdev/cleanup_func.o

