/home/dexterous/Desktop/Emblogic/005_Character_Device_Driver_Development/sys_call_hijacker/sys_call_hijacker_driver.ko
/home/dexterous/Desktop/Emblogic/005_Character_Device_Driver_Development/sys_call_hijacker/init_func.o /home/dexterous/Desktop/Emblogic/005_Character_Device_Driver_Development/sys_call_hijacker/cleanup_func.o /home/dexterous/Desktop/Emblogic/005_Character_Device_Driver_Development/sys_call_hijacker/opendev.o /home/dexterous/Desktop/Emblogic/005_Character_Device_Driver_Development/sys_call_hijacker/releasedev.o /home/dexterous/Desktop/Emblogic/005_Character_Device_Driver_Development/sys_call_hijacker/readdev.o /home/dexterous/Desktop/Emblogic/005_Character_Device_Driver_Development/sys_call_hijacker/readdev_dest.o /home/dexterous/Desktop/Emblogic/005_Character_Device_Driver_Development/sys_call_hijacker/writedev.o /home/dexterous/Desktop/Emblogic/005_Character_Device_Driver_Development/sys_call_hijacker/llseekdev.o /home/dexterous/Desktop/Emblogic/005_Character_Device_Driver_Development/sys_call_hijacker/trim_device.o /home/dexterous/Desktop/Emblogic/005_Character_Device_Driver_Development/sys_call_hijacker/create_dev_buff.o

